exp1
…
concept_groups <- ratings_trials_exp %>% 
  select(concept, condition_num) %>% 
  distinct() %>% 
  arrange(condition_num)

Group and pivot into a concept x texture matrix

ratings_trial_grouped <- ratings_trials_exp %>% group_by(texture, concept) %>%summarise(mean_rating = mean(response)) 

ratings_trials_grouped_wide<-ratings_trial_grouped %>%
  pivot_wider(names_from = texture, values_from = mean_rating)

ratings_trials_grouped_wide

# A tibble: 70 × 54
   concept    D18   D79   D19    D4   D82   D66   D92   D48  D105   D35    D8
   <chr>    <dbl> <dbl> <dbl> <dbl> <dbl> <dbl> <dbl> <dbl> <dbl> <dbl> <dbl>
 1 above    0.549 0.516 0.528 0.558 0.508 0.533 0.503 0.434 0.509 0.443 0.497
 2 airplane 0.474 0.387 0.350 0.409 0.436 0.387 0.446 0.390 0.417 0.415 0.453
 3 angry    0.567 0.405 0.702 0.683 0.542 0.582 0.694 0.476 0.367 0.473 0.540
 4 apple    0.296 0.347 0.331 0.357 0.290 0.464 0.316 0.480 0.356 0.311 0.374
 5 banana   0.319 0.448 0.373 0.356 0.389 0.284 0.314 0.284 0.480 0.272 0.290
 6 beach    0.502 0.391 0.409 0.582 0.427 0.465 0.545 0.391 0.429 0.407 0.255
 7 bear     0.391 0.476 0.437 0.445 0.456 0.244 0.453 0.214 0.459 0.297 0.31 
 8 below    0.447 0.455 0.431 0.426 0.461 0.456 0.423 0.461 0.451 0.439 0.423
 9 beside   0.539 0.463 0.421 0.375 0.422 0.508 0.440 0.543 0.488 0.511 0.567
10 bird     0.365 0.492 0.442 0.332 0.411 0.376 0.471 0.296 0.442 0.409 0.351
# ℹ 60 more rows
# ℹ 42 more variables: D52 <dbl>, D56 <dbl>, D51 <dbl>, D104 <dbl>, D94 <dbl>,
#   D14 <dbl>, D103 <dbl>, D101 <dbl>, D25 <dbl>, D74 <dbl>, D68 <dbl>,
#   D81 <dbl>, D76 <dbl>, D17 <dbl>, D84 <dbl>, D87 <dbl>, D34 <dbl>,
#   D47 <dbl>, D83 <dbl>, D22 <dbl>, D11 <dbl>, D36 <dbl>, D96 <dbl>,
#   D49 <dbl>, D46 <dbl>, D53 <dbl>, D95 <dbl>, D26 <dbl>, D16 <dbl>,
#   D75 <dbl>, D57 <dbl>, D102 <dbl>, D65 <dbl>, D77 <dbl>, D1 <dbl>, …
…
